\relax 
\providecommand\hyper@newdestlabel[2]{}
\providecommand\HyperFirstAtBeginDocument{\AtBeginDocument}
\HyperFirstAtBeginDocument{\ifx\hyper@anchor\@undefined
\global\let\oldcontentsline\contentsline
\gdef\contentsline#1#2#3#4{\oldcontentsline{#1}{#2}{#3}}
\global\let\oldnewlabel\newlabel
\gdef\newlabel#1#2{\newlabelxx{#1}#2}
\gdef\newlabelxx#1#2#3#4#5#6{\oldnewlabel{#1}{{#2}{#3}}}
\AtEndDocument{\ifx\hyper@anchor\@undefined
\let\contentsline\oldcontentsline
\let\newlabel\oldnewlabel
\fi}
\fi}
\global\let\hyper@last\relax 
\gdef\HyperFirstAtBeginDocument#1{#1}
\providecommand\HyField@AuxAddToFields[1]{}
\providecommand\HyField@AuxAddToCoFields[2]{}
\bibstyle{abbrvnat}
\citation{IEEE754A}
\@writefile{toc}{\contentsline {chapter}{\numberline {1}Provenance of R's Gradient Optimizers}{1}{section*.1}}
\@writefile{brf}{\backcite{IEEE754A}{{1}{2}{chapter.2}}}
\@writefile{toc}{\contentsline {section}{\numberline {2.1}The task}{1}{section.2.1}}
\@writefile{toc}{\contentsline {section}{\numberline {2.2}Types of methods}{1}{section.2.2}}
\citation{Fletcher70}
\citation{Broyden70}
\citation{Fletcher70}
\citation{Shanno70A}
\citation{Shanno70B}
\citation{Goldfarb70}
\citation{FletPow63}
\citation{Davidon59}
\citation{Davidon91}
\citation{DenSchnab83}
\citation{DennisSchnabel96}
\citation{Schnabel1985}
\citation{Fox1997}
\citation{Byrd1995}
\citation{LiuN89}
\citation{Morales2011}
\citation{FletReeves64}
\citation{Hestenes1952}
\citation{Dai01}
\citation{Hager2005}
\citation{Hager2006b}
\@writefile{brf}{\backcite{Fletcher70}{{2}{2.2}{section.2.2}}}
\@writefile{brf}{\backcite{Broyden70}{{2}{2.2}{section.2.2}}}
\@writefile{brf}{\backcite{Fletcher70}{{2}{2.2}{section.2.2}}}
\@writefile{brf}{\backcite{Shanno70A}{{2}{2.2}{section.2.2}}}
\@writefile{brf}{\backcite{Shanno70B}{{2}{2.2}{section.2.2}}}
\@writefile{brf}{\backcite{Goldfarb70}{{2}{2.2}{section.2.2}}}
\@writefile{brf}{\backcite{FletPow63}{{2}{2.2}{section.2.2}}}
\@writefile{brf}{\backcite{Davidon59}{{2}{2.2}{section.2.2}}}
\@writefile{brf}{\backcite{Davidon91}{{2}{2.2}{section.2.2}}}
\@writefile{brf}{\backcite{DenSchnab83}{{2}{2.2}{section.2.2}}}
\@writefile{brf}{\backcite{DennisSchnabel96}{{2}{2.2}{section.2.2}}}
\@writefile{brf}{\backcite{Schnabel1985}{{2}{2.2}{section.2.2}}}
\@writefile{brf}{\backcite{Fox1997}{{2}{2.2}{section.2.2}}}
\@writefile{toc}{\contentsline {section}{\numberline {2.3}Limited memory approaches and conjugate gradients}{2}{section.2.3}}
\@writefile{brf}{\backcite{Byrd1995}{{2}{2.3}{section.2.3}}}
\@writefile{brf}{\backcite{LiuN89}{{2}{2.3}{section.2.3}}}
\@writefile{brf}{\backcite{Morales2011}{{2}{2.3}{section.2.3}}}
\@writefile{brf}{\backcite{FletReeves64}{{2}{2.3}{section.2.3}}}
\@writefile{brf}{\backcite{Hestenes1952}{{2}{2.3}{section.2.3}}}
\@writefile{brf}{\backcite{Dai01}{{2}{2.3}{section.2.3}}}
\@writefile{brf}{\backcite{Hager2005}{{2}{2.3}{section.2.3}}}
\@writefile{brf}{\backcite{Hager2006b}{{2}{2.3}{section.2.3}}}
\@writefile{toc}{\contentsline {section}{\numberline {2.4}Gradient optimizers in R}{2}{section.2.4}}
\citation{NelderMead65}
\citation{Nash1990}
\citation{jncnm79}
\citation{Fletcher70}
\citation{Nielsen2000}
\citation{DennisSchnabel96}
\citation{DennisSchnabel96}
\citation{Melville17}
\citation{p-Rcgmin}
\citation{Dai01}
\citation{Hager2006a}
\citation{Byrd1995}
\citation{Zhu1997LBFGS}
\citation{Morales2011}
\@writefile{brf}{\backcite{NelderMead65}{{3}{2.4}{section.2.4}}}
\@writefile{brf}{\backcite{Nash1990}{{3}{2.4}{section.2.4}}}
\@writefile{brf}{\backcite{jncnm79}{{3}{2.4}{section.2.4}}}
\@writefile{brf}{\backcite{Fletcher70}{{3}{2.4}{section.2.4}}}
\@writefile{brf}{\backcite{Nielsen2000}{{3}{2.4}{section.2.4}}}
\@writefile{brf}{\backcite{DennisSchnabel96}{{3}{2.4}{section.2.4}}}
\@writefile{brf}{\backcite{DennisSchnabel96}{{3}{2.4}{section.2.4}}}
\@writefile{brf}{\backcite{Melville17}{{3}{2.4}{section.2.4}}}
\@writefile{brf}{\backcite{p-Rcgmin}{{3}{2.4}{section.2.4}}}
\@writefile{brf}{\backcite{Dai01}{{3}{2.4}{section.2.4}}}
\@writefile{brf}{\backcite{Hager2006a}{{3}{2.4}{section.2.4}}}
\@writefile{brf}{\backcite{Byrd1995}{{3}{2.4}{section.2.4}}}
\@writefile{brf}{\backcite{Zhu1997LBFGS}{{3}{2.4}{section.2.4}}}
\@writefile{brf}{\backcite{Morales2011}{{3}{2.4}{section.2.4}}}
\citation{Coppola2014}
\citation{SGN83}
\citation{NashTN2000}
\bibdata{RGradminRefs}
\bibcite{Broyden70}{{1}{1970}{{Broyden}}{{}}}
\bibcite{Byrd1995}{{2}{1995}{{Byrd et~al.}}{{Byrd, Lu, Nocedal, and Zhu}}}
\bibcite{Coppola2014}{{3}{2014}{{Coppola et~al.}}{{Coppola, Stewart, and Okazaki}}}
\bibcite{Dai01}{{4}{2001}{{Dai and Yuan}}{{}}}
\bibcite{Davidon59}{{5}{1959}{{Davidon}}{{}}}
\bibcite{Davidon91}{{6}{1991}{{Davidon}}{{}}}
\bibcite{DennisSchnabel96}{{7}{1996}{{Dennis and Schnabel}}{{}}}
\bibcite{DenSchnab83}{{8}{1983}{{Dennis and Schnabel}}{{}}}
\bibcite{Fletcher70}{{9}{1970}{{Fletcher}}{{}}}
\bibcite{FletReeves64}{{10}{1964}{{Fletcher and Reeves}}{{}}}
\bibcite{Fox1997}{{11}{1997}{{Fox}}{{}}}
\bibcite{Goldfarb70}{{12}{1970}{{Goldfarb}}{{}}}
\bibcite{Hager2005}{{13}{2005}{{Hager and Zhang}}{{}}}
\bibcite{Hager2006a}{{14}{2006{a}}{{Hager and Zhang}}{{}}}
\@writefile{brf}{\backcite{Coppola2014}{{4}{2.4}{section.2.4}}}
\@writefile{brf}{\backcite{SGN83}{{4}{2.4}{section.2.4}}}
\@writefile{brf}{\backcite{NashTN2000}{{4}{2.4}{section.2.4}}}
\@writefile{toc}{\contentsline {section}{\numberline {2.5}Summary and perspective}{4}{section.2.5}}
\bibcite{Hager2006b}{{15}{2006{b}}{{Hager and Zhang}}{{}}}
\bibcite{Hestenes1952}{{16}{1952}{{Hestenes and Stiefel}}{{}}}
\bibcite{IEEE754A}{{17}{1985}{{IEEE Binary Floating-Point Committee}}{{}}}
\bibcite{LiuN89}{{18}{1989}{{Liu and Nocedal}}{{}}}
\bibcite{Melville17}{{19}{2017}{{Melville}}{{}}}
\bibcite{Morales2011}{{20}{2011}{{Morales and Nocedal}}{{}}}
\bibcite{Nash1990}{{21}{1979{a}}{{Nash}}{{}}}
\bibcite{jncnm79}{{22}{1979{b}}{{Nash}}{{}}}
\bibcite{p-Rcgmin}{{23}{2011}{{Nash}}{{}}}
\bibcite{SGN83}{{24}{1983}{{Nash}}{{}}}
\bibcite{NashTN2000}{{25}{2000}{{Nash}}{{}}}
\bibcite{NelderMead65}{{26}{1965}{{Nelder and Mead}}{{}}}
\bibcite{Nielsen2000}{{27}{2000}{{Nielsen}}{{}}}
\bibcite{FletPow63}{{28}{1963}{{R.~Fletcher and Powell}}{{}}}
\bibcite{Schnabel1985}{{29}{1985}{{Schnabel et~al.}}{{Schnabel, Koonatz, and Weiss}}}
\bibcite{Shanno70A}{{30}{1970}{{Shanno}}{{}}}
\bibcite{Shanno70B}{{31}{1970}{{Shanno and Kettler}}{{}}}
\bibcite{Zhu1997LBFGS}{{32}{1997}{{Zhu et~al.}}{{Zhu, Byrd, Lu, and Nocedal}}}
\ttl@finishall
