\relax 
\providecommand\hyper@newdestlabel[2]{}
\providecommand\HyperFirstAtBeginDocument{\AtBeginDocument}
\HyperFirstAtBeginDocument{\ifx\hyper@anchor\@undefined
\global\let\oldcontentsline\contentsline
\gdef\contentsline#1#2#3#4{\oldcontentsline{#1}{#2}{#3}}
\global\let\oldnewlabel\newlabel
\gdef\newlabel#1#2{\newlabelxx{#1}#2}
\gdef\newlabelxx#1#2#3#4#5#6{\oldnewlabel{#1}{{#2}{#3}}}
\AtEndDocument{\ifx\hyper@anchor\@undefined
\let\contentsline\oldcontentsline
\let\newlabel\oldnewlabel
\fi}
\fi}
\global\let\hyper@last\relax 
\gdef\HyperFirstAtBeginDocument#1{#1}
\providecommand\HyField@AuxAddToFields[1]{}
\providecommand\HyField@AuxAddToCoFields[2]{}
\bibstyle{abbrvnat}
\citation{citeR}
\citation{IEEE754A}
\@writefile{toc}{\contentsline {chapter}{\numberline {1}Provenance of R's Gradient Optimizers}{1}{section*.1}}
\@writefile{brf}{\backcite{citeR}{{1}{2}{chapter.2}}}
\@writefile{brf}{\backcite{IEEE754A}{{1}{2}{chapter.2}}}
\@writefile{toc}{\contentsline {section}{\numberline {2.1}The task}{1}{section.2.1}}
\@writefile{toc}{\contentsline {section}{\numberline {2.2}General approaches}{1}{section.2.2}}
\citation{jncnm79}
\citation{NelderMead65}
\citation{Fletcher70}
\citation{jncnm79}
\citation{Fletcher70}
\@writefile{toc}{\contentsline {section}{\numberline {2.3}The histoRicalg project}{2}{section.2.3}}
\@writefile{brf}{\backcite{jncnm79}{{2}{2.3}{section.2.3}}}
\@writefile{brf}{\backcite{NelderMead65}{{2}{2.3}{section.2.3}}}
\@writefile{brf}{\backcite{Fletcher70}{{2}{2.3}{section.2.3}}}
\@writefile{toc}{\contentsline {section}{\numberline {2.4}Provenance of the R optim--BFGS solver}{2}{section.2.4}}
\@writefile{brf}{\backcite{jncnm79}{{2}{2.4}{section.2.4}}}
\@writefile{brf}{\backcite{Fletcher70}{{2}{2.4}{section.2.4}}}
\citation{jnmws87}
\citation{p-Rvmmin}
\citation{JNRV11}
\citation{NashBest14}
\citation{p-ucminf}
\citation{Nielsen2000}
\citation{Melville17}
\citation{Schnabel1985}
\citation{Fox1997}
\citation{Gay1990}
\citation{FletReeves64}
\citation{Polak1969}
\citation{Sorenson1969}
\citation{Beale1972}
\@writefile{toc}{\contentsline {section}{\numberline {2.5}Evolution of the code}{3}{section.2.5}}
\@writefile{brf}{\backcite{jnmws87}{{3}{2.5}{section.2.5}}}
\@writefile{brf}{\backcite{p-Rvmmin}{{3}{2.5}{section.2.5}}}
\@writefile{brf}{\backcite{JNRV11}{{3}{2.5}{section.2.5}}}
\@writefile{brf}{\backcite{NashBest14}{{3}{2.5}{section.2.5}}}
\@writefile{toc}{\contentsline {section}{\numberline {2.6}Extensions and related codes}{3}{section.2.6}}
\@writefile{brf}{\backcite{p-ucminf}{{3}{2.6}{section.2.6}}}
\@writefile{brf}{\backcite{Nielsen2000}{{3}{2.6}{section.2.6}}}
\@writefile{brf}{\backcite{Melville17}{{3}{2.6}{section.2.6}}}
\@writefile{brf}{\backcite{Schnabel1985}{{3}{2.6}{section.2.6}}}
\@writefile{brf}{\backcite{Fox1997}{{3}{2.6}{section.2.6}}}
\@writefile{brf}{\backcite{Gay1990}{{3}{2.6}{section.2.6}}}
\citation{Dai01}
\citation{p-Rcgmin}
\citation{Hager2006a}
\citation{Hager2006b}
\citation{Byrd1995}
\citation{Lu94limitedmemory}
\citation{Nocedal80}
\citation{LiuN89}
\citation{Zhu1997LBFGS}
\citation{LiuN89}
\citation{Byrd1995}
\citation{Coppola2014}
\citation{Morales2011}
\@writefile{toc}{\contentsline {section}{\numberline {2.7}Provenance of the R optim--CG and related solvers}{4}{section.2.7}}
\@writefile{brf}{\backcite{FletReeves64}{{4}{2.7}{section.2.7}}}
\@writefile{brf}{\backcite{Polak1969}{{4}{2.7}{section.2.7}}}
\@writefile{brf}{\backcite{Sorenson1969}{{4}{2.7}{section.2.7}}}
\@writefile{brf}{\backcite{Beale1972}{{4}{2.7}{section.2.7}}}
\@writefile{brf}{\backcite{Dai01}{{4}{2.7}{section.2.7}}}
\@writefile{brf}{\backcite{p-Rcgmin}{{4}{2.7}{section.2.7}}}
\@writefile{brf}{\backcite{Hager2006a}{{4}{2.7}{section.2.7}}}
\@writefile{brf}{\backcite{Hager2006b}{{4}{2.7}{section.2.7}}}
\@writefile{toc}{\contentsline {section}{\numberline {2.8}Provenance of the R optim--L-BFGS-B and related solvers}{4}{section.2.8}}
\@writefile{brf}{\backcite{Byrd1995}{{4}{2.8}{section.2.8}}}
\@writefile{brf}{\backcite{Lu94limitedmemory}{{4}{2.8}{section.2.8}}}
\@writefile{brf}{\backcite{Nocedal80}{{4}{2.8}{section.2.8}}}
\@writefile{brf}{\backcite{LiuN89}{{4}{2.8}{section.2.8}}}
\@writefile{brf}{\backcite{Zhu1997LBFGS}{{4}{2.8}{section.2.8}}}
\@writefile{brf}{\backcite{LiuN89}{{4}{2.8}{section.2.8}}}
\@writefile{brf}{\backcite{Byrd1995}{{4}{2.8}{section.2.8}}}
\@writefile{brf}{\backcite{Coppola2014}{{4}{2.8}{section.2.8}}}
\@writefile{brf}{\backcite{Morales2011}{{4}{2.8}{section.2.8}}}
\citation{Morales2011}
\citation{DERFRcpp2011}
\citation{SGN83}
\citation{NashTN2000}
\citation{nlpor14}
\citation{p-ROI}
\bibdata{RGradminProvenance}
\bibcite{Beale1972}{{1}{1972}{{Beale}}{{}}}
\@writefile{brf}{\backcite{Morales2011}{{5}{2.8}{section.2.8}}}
\@writefile{brf}{\backcite{DERFRcpp2011}{{5}{2.8}{section.2.8}}}
\@writefile{toc}{\contentsline {section}{\numberline {2.9}Provenance of truncated Newton codes for R}{5}{section.2.9}}
\@writefile{brf}{\backcite{SGN83}{{5}{2.9}{section.2.9}}}
\@writefile{brf}{\backcite{NashTN2000}{{5}{2.9}{section.2.9}}}
\@writefile{toc}{\contentsline {section}{\numberline {2.10}Discussion}{5}{section.2.10}}
\@writefile{brf}{\backcite{nlpor14}{{5}{2.10}{section.2.10}}}
\@writefile{brf}{\backcite{p-ROI}{{5}{2.10}{section.2.10}}}
\bibcite{Byrd1995}{{2}{1995}{{Byrd et~al.}}{{Byrd, Lu, Nocedal, and Zhu}}}
\bibcite{Coppola2014}{{3}{2014}{{Coppola et~al.}}{{Coppola, Stewart, and Okazaki}}}
\bibcite{Dai01}{{4}{2001}{{Dai and Yuan}}{{}}}
\bibcite{DERFRcpp2011}{{5}{2011}{{Eddelbuettel and Fran\c {c}ois}}{{}}}
\bibcite{Fletcher70}{{6}{1970}{{Fletcher}}{{}}}
\bibcite{FletReeves64}{{7}{1964}{{Fletcher and Reeves}}{{}}}
\bibcite{Fox1997}{{8}{1997}{{Fox}}{{}}}
\bibcite{Gay1990}{{9}{1990}{{Gay}}{{}}}
\bibcite{Hager2006a}{{10}{2006{a}}{{Hager and Zhang}}{{}}}
\bibcite{Hager2006b}{{11}{2006{b}}{{Hager and Zhang}}{{}}}
\bibcite{p-ROI}{{12}{2011}{{Hornik et~al.}}{{Hornik, Meyer, and Theussl}}}
\bibcite{IEEE754A}{{13}{1985}{{IEEE}}{{}}}
\bibcite{LiuN89}{{14}{1989}{{Liu and Nocedal}}{{}}}
\bibcite{Lu94limitedmemory}{{15}{1994}{{Lu et~al.}}{{Lu, Nocedal, Zhu, and Byrd}}}
\bibcite{Melville17}{{16}{2017}{{Melville}}{{}}}
\bibcite{Morales2011}{{17}{2011}{{Morales and Nocedal}}{{}}}
\bibcite{jncnm79}{{18}{1979}{{Nash}}{{}}}
\bibcite{NashBest14}{{19}{2014{a}}{{Nash}}{{}}}
\bibcite{nlpor14}{{20}{2014{b}}{{Nash}}{{}}}
\bibcite{p-Rcgmin}{{21}{2014{c}}{{Nash}}{{}}}
\bibcite{p-Rvmmin}{{22}{2018}{{Nash}}{{}}}
\bibcite{JNRV11}{{23}{2011}{{Nash and Varadhan}}{{}}}
\bibcite{jnmws87}{{24}{1987}{{Nash and Walker-Smith}}{{}}}
\bibcite{SGN83}{{25}{1983}{{Nash}}{{}}}
\bibcite{NashTN2000}{{26}{2000}{{Nash}}{{}}}
\bibcite{NelderMead65}{{27}{1965}{{Nelder and Mead}}{{}}}
\bibcite{Nielsen2000}{{28}{2000}{{Nielsen}}{{}}}
\bibcite{p-ucminf}{{29}{2012}{{Nielsen and Mortensen}}{{}}}
\bibcite{Nocedal80}{{30}{1980}{{Nocedal}}{{}}}
\bibcite{Polak1969}{{31}{1969}{{Polak and Ribiere}}{{}}}
\bibcite{citeR}{{32}{2019}{{R Core Team}}{{}}}
\bibcite{Schnabel1985}{{33}{1985}{{Schnabel et~al.}}{{Schnabel, Koonatz, and Weiss}}}
\bibcite{Sorenson1969}{{34}{1969}{{Sorenson}}{{}}}
\bibcite{Zhu1997LBFGS}{{35}{1997}{{Zhu et~al.}}{{Zhu, Byrd, Lu, and Nocedal}}}
\ttl@finishall
